<?xml version="1.0" encoding="UTF-8"?>
<svg width="37px" height="37px" viewBox="0 0 37 37" version="1.1" xmlns="http://www.w3.org/2000/svg" xmlns:xlink="http://www.w3.org/1999/xlink">
    <!-- Generator: Sketch 48.2 (47327) - http://www.bohemiancoding.com/sketch -->
    <title>pin-add-2</title>
    <desc>Created with Sketch.</desc>
    <defs></defs>
    <g id="Orderin-redesign---case-study" stroke="none" stroke-width="1" fill="none" fill-rule="evenodd" transform="translate(-180.000000, -4703.000000)" stroke-linecap="round" stroke-linejoin="round">
        <g id="Group-5-Copy-2" transform="translate(151.000000, 4677.000000)" stroke="#2A67DC" stroke-width="2.31">
            <g id="pin-add-2" transform="translate(30.000000, 27.000000)">
                <path d="M12.875,34.84375 C12.875,34.84375 0.15625,23.28125 0.15625,12.875 C0.151880294,6.29725122 5.16368282,0.801351585 11.7139699,0.200903602 C18.2642569,-0.39954438 24.1917276,4.09358018 25.3833125,10.5625" id="Shape"></path>
                <circle id="Oval" cx="12.875" cy="12.875" r="3.46875"></circle>
                <circle id="Oval" cx="25.59375" cy="25.59375" r="9.25"></circle>
                <path d="M25.59375,20.96875 L25.59375,30.21875" id="Shape"></path>
                <path d="M20.96875,25.59375 L30.21875,25.59375" id="Shape"></path>
            </g>
        </g>
    </g>
</svg>