<?xml version="1.0" standalone="no"?>
<!DOCTYPE svg PUBLIC "-//W3C//DTD SVG 1.1//EN" "http://www.w3.org/Graphics/SVG/1.1/DTD/svg11.dtd" >
<svg xmlns="http://www.w3.org/2000/svg">
<metadata>Generated by IcoMoon</metadata>
<defs>
<font id="iconfont" horiz-adv-x="1024">
<font-face units-per-em="1024" ascent="960" descent="-64" />
<missing-glyph horiz-adv-x="1024" />
<glyph unicode="&#x20;" horiz-adv-x="512" d="" />
<glyph unicode="&#xe900;" glyph-name="android" horiz-adv-x="832" d="M64 672.717c-35.36 0-64-28.64-64-64v-256c0-35.328 28.64-64 64-64 35.328 0 64 28.672 64 64v256c0 35.36-28.672 64-64 64zM768 672.717c-35.36 0-64-28.64-64-64v-256c0-35.328 28.64-64 64-64 35.328 0 64 28.672 64 64v256c0 35.36-28.672 64-64 64zM160 160.717h64v-160c0-35.36 28.64-64 64-64 35.328 0 64 28.64 64 64v160h128v-160c0-35.36 28.64-64 64-64 35.328 0 64 28.64 64 64v160h64v480h-512v-480zM512 768.717c-17.696 0-32 14.304-32 32s14.304 32 32 32c17.696 0 32-14.304 32-32s-14.304-32-32-32zM320 768.717c-17.696 0-32 14.304-32 32s14.304 32 32 32c17.696 0 32-14.304 32-32s-14.304-32-32-32zM567.136 879.021l32.864 56.96c4.448 7.68 1.824 17.408-5.888 21.856-7.616 4.448-17.44 1.824-21.824-5.856l-32.032-55.52c-36.832 20.512-79.136 32.256-124.256 32.256-45.088 0-87.392-11.744-124.224-32.256l-32.064 55.552c-4.448 7.648-14.176 10.272-21.856 5.824-7.648-4.384-10.272-14.176-5.856-21.824l32.896-56.992c-63.488-46.592-104.896-121.536-104.896-206.304h512c0 84.768-41.408 159.712-104.864 206.304z" />
<glyph unicode="&#xe901;" glyph-name="apple" horiz-adv-x="896" d="M879.914 208.742c-24.032-53.312-35.552-77.088-66.528-124.192-43.168-65.76-104.064-147.68-179.52-148.384-67.072-0.608-84.288 43.648-175.264 43.136s-109.984-43.936-177.056-43.296c-75.424 0.704-133.152 74.656-176.352 140.416-120.832 183.904-133.44 399.776-58.944 514.496 52.96 81.568 136.48 129.28 215.040 129.28 79.968 0 130.24-43.84 196.352-43.84 64.16 0 103.232 43.904 195.712 43.904 69.856 0 143.904-38.048 196.704-103.84-172.896-94.72-144.832-341.664 29.856-407.68zM583.187 793.744c33.568 43.104 59.104 104.032 49.856 166.272-54.88-3.776-119.072-38.72-156.544-84.224-34.016-41.312-62.112-102.624-51.168-162.176 59.904-1.856 121.888 33.952 157.856 80.128z" />
<glyph unicode="&#xe902;" glyph-name="arrow-left" horiz-adv-x="1170" d="M489.771 960l102.4-102.4-314.514-314.514h892.343v-146.286h-892.343l314.514-314.514-102.4-102.4-490.057 490.057z" />
<glyph unicode="&#xe903;" glyph-name="arrow-right" horiz-adv-x="1170" d="M680.229 960l-102.4-102.4 314.514-314.514h-892.343v-146.286h892.343l-314.514-314.514 102.4-102.4 490.057 490.057z" />
<glyph unicode="&#xe904;" glyph-name="star" d="M506.611 960l161.684-344.926h344.926l-253.305-264.084 102.4-404.211-355.705 204.8-355.705-204.8 102.4 404.211-253.305 264.084h344.926z" />
<glyph unicode="&#xe905;" glyph-name="arrow-down" horiz-adv-x="1170" d="M1075.057 352.914l-102.4 102.4-314.514-314.514v892.343h-146.286v-892.343l-314.514 314.514-102.4-102.4 490.057-490.057z" />
<glyph unicode="&#xe906;" glyph-name="search-list" horiz-adv-x="1182" d="M0 649.026v-59.077h371.864v59.077zM0 328.205v-59.077h371.864v59.077zM0 7.385v-59.077h796.852v59.077zM0 960v-39.385h796.852v39.385zM1038.884 458.511c0 134.525-108.311 243.67-242.032 243.67s-242.032-109.145-242.032-243.67c0-134.525 108.311-243.67 242.032-243.67s242.032 109.145 242.032 243.67zM613.896 458.511c0 101.999 81.963 184.593 182.955 184.593s182.955-82.595 182.955-184.593c0-101.999-81.963-184.593-182.955-184.593s-182.955 82.595-182.955 184.593zM968.051 327.927l-41.934-41.613 195.069-196.573 41.934 41.613z" />
<glyph unicode="&#xe907;" glyph-name="imac" horiz-adv-x="1092" d="M1024 311.467h-955.733v546.133c0 18.807 15.326 34.133 34.133 34.133h887.467c18.807 0 34.133-15.326 34.133-34.133v-546.133zM989.867 960h-887.467c-56.457 0-102.4-45.943-102.4-102.4v-648.533c0-56.457 45.943-102.4 102.4-102.4h307.2v-102.4h-102.4c-18.842 0-34.133-15.292-34.133-34.133s15.292-34.133 34.133-34.133h477.867c18.842 0 34.133 15.292 34.133 34.133s-15.292 34.133-34.133 34.133h-102.4v102.4h307.2c56.457 0 102.4 45.943 102.4 102.4v648.533c0 56.457-45.943 102.4-102.4 102.4v0z" />
<glyph unicode="&#xe908;" glyph-name="triangle" horiz-adv-x="1138" d="M503.81 842.859l34.381 61.886h61.395l34.381-61.886-503.81-906.859h-63.21l-34.435 58.522 30.697 55.255h1011.358l30.697-55.255-34.435-58.522h-63.21l-503.81 906.859zM1137.778-64h-1137.778l568.889 1024 568.889-1024z" />
</font></defs></svg>