<?xml version="1.0" encoding="UTF-8"?>
<svg width="195px" height="194px" viewBox="0 0 195 194" version="1.1" xmlns="http://www.w3.org/2000/svg" xmlns:xlink="http://www.w3.org/1999/xlink">
    <!-- Generator: Sketch 52.6 (67491) - http://www.bohemiancoding.com/sketch -->
    <title>border</title>
    <desc>Created with Sketch.</desc>
    <g id="Desktop-(1170-Grid)" stroke="none" stroke-width="1" fill="none" fill-rule="evenodd">
        <g id="FitOn_CaseStudy" transform="translate(-437.000000, -3024.000000)" stroke="#979797">
            <g id="The-Solution" transform="translate(251.000000, 2441.000000)">
                <g id="iPad" transform="translate(187.000000, 584.000000)">
                    <g id="border">
                        <polyline id="Path" points="67 28 96 0 125 28"></polyline>
                        <polyline id="Path-Copy" transform="translate(96.000000, 178.000000) scale(1, -1) translate(-96.000000, -178.000000) " points="67 192 96 164 125 192"></polyline>
                        <polyline id="Path-Copy-2" transform="translate(179.000000, 96.000000) scale(1, -1) rotate(90.000000) translate(-179.000000, -96.000000) " points="150 110 179 82 208 110"></polyline>
                        <polyline id="Path-Copy-3" transform="translate(14.000000, 96.000000) scale(-1, -1) rotate(90.000000) translate(-14.000000, -96.000000) " points="-15 110 14 82 43 110"></polyline>
                    </g>
                </g>
            </g>
        </g>
    </g>
</svg>